<svg width="232" height="36" viewBox="0 0 232 36" fill="none" xmlns="http://www.w3.org/2000/svg">
<g clip-path="url(#clip0_123_8)">
<path d="M25.083 0H231.375V35H25.083V0Z" fill="#306998"/>
<path d="M0 0.0289917H112.375V35.029H0V0.0289917Z" fill="#FFD43B"/>
<path d="M132.425 14.368C132.729 14.6465 132.966 14.9892 133.121 15.3711C133.276 15.753 133.343 16.1646 133.319 16.576C133.345 17.0052 133.278 17.4349 133.124 17.8363C132.97 18.2377 132.731 18.6014 132.425 18.903C131.721 19.4933 130.816 19.7898 129.899 19.731L128.579 19.744V22H126.079V13.588H129.9C130.809 13.5303 131.707 13.8078 132.425 14.368V14.368ZM130.649 17.512C130.756 17.3964 130.839 17.2602 130.891 17.1116C130.944 16.963 130.965 16.8052 130.955 16.648C130.965 16.4935 130.943 16.3385 130.891 16.1929C130.838 16.0473 130.756 15.9142 130.649 15.802C130.409 15.5932 130.096 15.4875 129.779 15.508H128.579V17.808H129.779C129.936 17.8187 130.094 17.798 130.244 17.7472C130.393 17.6964 130.531 17.6164 130.649 17.512ZM144.719 13.588L141.695 19.336V22H139.195V19.384L136.111 13.584H138.611L140.447 17.016L142.235 13.584L144.719 13.588ZM147.347 13.588H154.739V15.58H152.291V22H149.783V15.58H147.347V13.588ZM158.159 13.588H160.659V16.936H163.647V13.588H166.147V22H163.647V18.868H160.659V22H158.159V13.588ZM176.645 14C177.325 14.3574 177.894 14.895 178.289 15.554C178.689 16.2269 178.894 16.9974 178.883 17.78C178.894 18.5702 178.689 19.3484 178.289 20.03C177.896 20.6952 177.327 21.2392 176.645 21.602C175.918 21.9771 175.113 22.1728 174.295 22.1728C173.477 22.1728 172.672 21.9771 171.945 21.602C171.265 21.2377 170.699 20.694 170.307 20.03C169.907 19.3483 169.702 18.5702 169.713 17.78C169.702 16.9974 169.907 16.227 170.307 15.554C170.701 14.8959 171.269 14.3585 171.947 14C172.675 13.6289 173.48 13.4355 174.297 13.4355C175.114 13.4355 175.919 13.6289 176.647 14H176.645ZM173.309 15.812C172.99 16.0156 172.729 16.2989 172.553 16.634C172.363 16.9901 172.266 17.3884 172.271 17.792C172.267 18.1974 172.363 18.5975 172.553 18.956C172.729 19.2944 172.989 19.5817 173.309 19.79C173.613 19.9906 173.97 20.097 174.335 20.096C174.691 20.0965 175.04 19.9899 175.335 19.79C175.645 19.5825 175.896 19.297 176.061 18.962C176.24 18.5984 176.331 18.1974 176.325 17.792C176.33 17.3905 176.239 16.9936 176.061 16.634C175.898 16.3011 175.649 16.0174 175.341 15.812C175.042 15.6139 174.691 15.5094 174.333 15.512C173.97 15.5099 173.615 15.6127 173.309 15.808V15.812ZM188.159 13.588H190.439V22H188.315L184.751 17.32V22H182.459V13.588H184.595L188.159 18.28V13.588ZM15.7889 13.469L18.2499 20.008L20.7049 13.469H22.6209V22H21.1449V19.188L21.2909 15.426L18.7709 22H17.7109L15.1999 15.432L15.3459 19.188V22H13.8669V13.469H15.7889ZM31.8939 20.014H28.5939L27.8999 22H26.3569L29.5799 13.469H30.9099L34.1379 22H32.5909L31.8939 20.014ZM29.0049 18.814H31.4779L30.2419 15.275L29.0049 18.814ZM37.7449 22V13.469H40.2649C40.9665 13.4545 41.6592 13.6271 42.2719 13.969C42.8539 14.303 43.3253 14.8001 43.6279 15.399C43.9575 16.0566 44.1222 16.7845 44.1079 17.52V17.948C44.124 18.6878 43.9582 19.4203 43.6249 20.081C43.3167 20.68 42.8374 21.1738 42.2479 21.5C41.6199 21.8408 40.9143 22.0131 40.1999 22H37.7449ZM39.2269 14.664V20.8H40.1939C40.5279 20.8206 40.8622 20.7658 41.1721 20.6396C41.4819 20.5134 41.7594 20.3191 41.9839 20.071C42.4373 19.4719 42.6627 18.7311 42.6199 17.981V17.506C42.6721 16.752 42.4599 16.0035 42.0199 15.389C41.8037 15.1407 41.5332 14.9456 41.2293 14.8188C40.9255 14.692 40.5965 14.637 40.2679 14.658L39.2269 14.664ZM53.2109 18.191H49.7109V20.8H53.8109V22H48.2249V13.469H53.7619V14.669H49.7069V17.02H53.2069L53.2109 18.191ZM69.9699 19.891L71.2829 13.469H72.7539L70.7839 22H69.3659L67.7429 15.771L66.0849 22H64.6609L62.6919 13.469H64.1629L65.4869 19.879L67.1159 13.469H68.3579L69.9699 19.891ZM78.0409 22H76.5639V13.469H78.0409V22ZM88.4999 14.664H85.8399V22H84.3669V14.664H81.7299V13.464H88.4999V14.664ZM99.0299 22H97.5539V18.215H93.7389V22H92.257V13.469H93.7389V17.02H97.5529V13.469H99.0299V22Z" fill="white"/>
<path d="M218.254 16.391C218.054 15.031 217.474 14.171 216.594 13.941C216.289 13.8957 215.979 13.8957 215.674 13.941H214.994V14.941C215.015 15.304 215.015 15.668 214.994 16.031C214.951 16.3687 214.835 16.693 214.654 16.981C214.516 17.1908 214.335 17.3689 214.123 17.5034C213.911 17.6379 213.673 17.7257 213.424 17.761C212.682 17.8163 211.936 17.8163 211.194 17.761H209.134C208.718 17.7799 208.322 17.943 208.014 18.2222C207.705 18.5014 207.504 18.8793 207.444 19.291C207.411 19.9577 207.411 20.6243 207.444 21.291V23.151C207.487 23.4828 207.642 23.79 207.884 24.021C208.389 24.4583 209.019 24.7274 209.684 24.791C210.015 24.8443 210.349 24.8777 210.684 24.891H211.614C212.238 24.8764 212.856 24.7616 213.444 24.551C213.705 24.4796 213.943 24.3402 214.133 24.147C214.322 23.9537 214.457 23.7135 214.524 23.451V21.611H210.954V21.021H213.574C214.519 21.0867 215.468 21.0867 216.414 21.021C216.704 20.9617 216.977 20.8387 217.214 20.661C217.51 20.3975 217.75 20.078 217.922 19.721C218.094 19.364 218.193 18.9766 218.214 18.581C218.233 18.2279 218.233 17.8741 218.214 17.521V16.521L218.254 16.391ZM212.344 23.021C212.343 22.9308 212.364 22.8418 212.404 22.761C212.447 22.6768 212.508 22.6029 212.582 22.5442C212.656 22.4856 212.742 22.4436 212.834 22.421C212.936 22.401 213.042 22.401 213.144 22.421C213.254 22.4505 213.355 22.5086 213.436 22.5893C213.516 22.6701 213.574 22.7707 213.604 22.881C213.612 22.934 213.612 22.988 213.604 23.041C213.607 23.1346 213.587 23.2276 213.544 23.311C213.502 23.4016 213.439 23.4812 213.361 23.5436C213.283 23.606 213.192 23.6496 213.094 23.671C213.008 23.6843 212.92 23.6843 212.834 23.671C212.716 23.6446 212.607 23.5857 212.52 23.5009C212.434 23.4161 212.373 23.3087 212.344 23.191C212.335 23.1347 212.335 23.0773 212.344 23.021V23.021Z" fill="#FFE873"/>
<path d="M214.514 11.851C214.466 11.6188 214.368 11.4 214.226 11.2099C214.084 11.0199 213.903 10.8632 213.694 10.751C212.83 10.3185 211.868 10.1218 210.904 10.181C209.907 10.1106 208.91 10.3183 208.024 10.781C207.874 10.8704 207.744 10.9891 207.641 11.13C207.537 11.2708 207.464 11.431 207.424 11.601C207.401 11.934 207.401 12.2681 207.424 12.601V13.451H211V14.021H205.69C205.175 14.0852 204.705 14.347 204.38 14.751C203.926 15.3664 203.671 16.1063 203.65 16.871C203.611 17.3502 203.611 17.8318 203.65 18.311C203.689 18.8959 203.835 19.4687 204.08 20.001C204.296 20.4559 204.669 20.818 205.13 21.021C205.244 21.0619 205.361 21.0921 205.48 21.111H206.88V20.111C206.858 19.748 206.858 19.384 206.88 19.021C206.929 18.574 207.118 18.154 207.42 17.821C207.721 17.5137 208.121 17.3225 208.55 17.281H210.66C211.395 17.3401 212.134 17.3401 212.87 17.281C213.131 17.2456 213.381 17.1572 213.607 17.0213C213.832 16.8855 214.027 16.705 214.18 16.491C214.251 16.3771 214.312 16.2565 214.36 16.131C214.417 15.9627 214.454 15.7881 214.47 15.611V13.731C214.524 12.1 214.524 11.911 214.514 11.851V11.851ZM209.514 12.221C209.472 12.31 209.411 12.3885 209.335 12.4508C209.259 12.5131 209.169 12.5576 209.074 12.581C208.994 12.5921 208.914 12.5921 208.834 12.581C208.712 12.5625 208.598 12.5092 208.506 12.4276C208.414 12.3461 208.347 12.2396 208.314 12.121C208.288 12.0058 208.288 11.8862 208.314 11.771C208.349 11.6333 208.429 11.5113 208.542 11.4242C208.654 11.3371 208.792 11.2898 208.934 11.2898C209.076 11.2898 209.214 11.3371 209.326 11.4242C209.439 11.5113 209.519 11.6333 209.554 11.771C209.595 11.9201 209.585 12.0788 209.524 12.221H209.514Z" fill="#4B8BBE"/>
</g>
<defs>
<clipPath id="clip0_123_8">
<rect width="231.375" height="35.059" fill="white"/>
</clipPath>
</defs>
</svg>
